Location Country,Location Canton,Location Name,Location City,Location Street Name,Location Street Number2,Lat,Lon,Max Power (kw),socketType,Plug Type,EVSE,
Switzerland,Aargau,Aarau,Aarau,Neumattstrasse,36,47.401593,8.065078,22,AC,AC Socket,CH*SWI*2570,
Switzerland,Aargau,Aarau,Aarau,Neumattstrasse,36,47.401593,8.065078,43,AC,AC Plug,CH*SWI*2571,
Switzerland,Aargau,Aarau,Aarau,Neumattstrasse,36,47.401593,8.065078,60,DC,CHADEMO,CH*SWI*2569,
Switzerland,Aargau,Aarau,Aarau,Neumattstrasse,36,47.401593,8.065078,80,DC,CCS,CH*SWI*2568,
Switzerland,Ticino,Bellinzona Nord,Bellinzona,A2 Gotthard/San Bernardino - Chiasso,,46.209388,9.0266116,22,AC,AC Socket,CH*SWI*6146,
Switzerland,Ticino,Bellinzona Nord,Bellinzona,A2 Gotthard/San Bernardino - Chiasso,,46.209388,9.0266116,43,AC,AC Plug,CH*SWI*6147,
Switzerland,Ticino,Bellinzona Nord,Bellinzona,A2 Gotthard/San Bernardino - Chiasso,,46.209388,9.0266116,60,DC,CHADEMO,CH*SWI*6145,
Switzerland,Ticino,Bellinzona Nord,Bellinzona,A2 Gotthard/San Bernardino - Chiasso,,46.209388,9.0266116,80,DC,CCS,CH*SWI*6144,
Switzerland,Ticino,Bellinzona Sud,Monte Carasso,A2 Chiasso - Gotthard/San Bernardino,,46.182048,9.0018366,22,AC,AC Socket,CH*SWI*5268,
Switzerland,Ticino,Bellinzona Sud,Monte Carasso,A2 Chiasso - Gotthard/San Bernardino,,46.182048,9.0018366,43,AC,AC Plug,CH*SWI*5269,
Switzerland,Ticino,Bellinzona Sud,Monte Carasso,A2 Chiasso - Gotthard/San Bernardino,,46.182048,9.0018366,60,DC,CHADEMO,CH*SWI*5267,
Switzerland,Ticino,Bellinzona Sud,Monte Carasso,A2 Chiasso - Gotthard/San Bernardino,,46.182048,9.0018366,80,DC,CCS,CH*SWI*5266,
Switzerland,Ticino,Bellinzona-Arbedo,Arbedo,Via S. Gottardo,129,46.212877,9.039606,100,DC,CCS,CH*SWI*5650,
Switzerland,Ticino,Bellinzona-Arbedo,Arbedo,Via S. Gottardo,129,46.212877,9.039606,22,AC,AC Socket,CH*SWI*5652,
Switzerland,Ticino,Bellinzona-Arbedo,Arbedo,Via S. Gottardo,129,46.212877,9.039606,43,AC,AC Plug,CH*SWI*5653,
Switzerland,Ticino,Bellinzona-Arbedo,Arbedo,Via S. Gottardo,129,46.212877,9.039606,60,DC,CHADEMO,CH*SWI*5651,
Switzerland,Bern,Bern-Forsthaus,Bern,Murtenstrasse,98,46.952252,7.416758,150,DC,CCS,CH*SWI*19557,
Switzerland,Bern,Bern-Forsthaus,Bern,Murtenstrasse,98,46.952252,7.416758,150,DC,CCS,CH*SWI*19559,
Switzerland,Bern,Bern-Forsthaus,Bern,Murtenstrasse,98,46.952252,7.416758,22,AC,AC Socket,CH*SWI*19561,
Switzerland,Bern,Bern-Forsthaus,Bern,Murtenstrasse,98,46.952252,7.416758,43,AC,AC Plug,CH*SWI*19562,
Switzerland,Bern,Bern-Forsthaus,Bern,Murtenstrasse,98,46.952252,7.416758,50,DC,DC Typ2,CH*SWI*19560,
Switzerland,Bern,Bern-Forsthaus,Bern,Murtenstrasse,98,46.952252,7.416758,60,DC,CHADEMO,CH*SWI*19558,
Switzerland,Bern,Bern-Niederwangen,Bern,Wangenstrasse,102,46.932974,7.386187,100,DC,CCS,CH*SWI*10302,
Switzerland,Bern,Bern-Niederwangen,Bern,Wangenstrasse,102,46.932974,7.386187,100,DC,CCS,CH*SWI*10304,
Switzerland,Bern,Bern-Niederwangen,Bern,Wangenstrasse,102,46.932974,7.386187,22,AC,AC Socket,CH*SWI*10306,
Switzerland,Bern,Bern-Niederwangen,Bern,Wangenstrasse,102,46.932974,7.386187,43,AC,AC Plug,CH*SWI*10307,
Switzerland,Bern,Bern-Niederwangen,Bern,Wangenstrasse,102,46.932974,7.386187,50,DC,DC Typ2,CH*SWI*10305,
Switzerland,Bern,Bern-Niederwangen,Bern,Wangenstrasse,102,46.932974,7.386187,60,DC,CHADEMO,CH*SWI*10303,
Switzerland,Bern,Biel-Brügg,Brügg,Mittelstrasse,1,47.120075,7.265004,100,DC,CCS,CH*SWI*28361,
Switzerland,Bern,Biel-Brügg,Brügg,Mittelstrasse,1,47.120075,7.265004,100,DC,CCS,CH*SWI*28363,
Switzerland,Bern,Biel-Brügg,Brügg,Mittelstrasse,1,47.120075,7.265004,22,AC,AC Socket,CH*SWI*28365,
Switzerland,Bern,Biel-Brügg,Brügg,Mittelstrasse,1,47.120075,7.265004,43,AC,AC Plug,CH*SWI*28366,
Switzerland,Bern,Biel-Brügg,Brügg,Mittelstrasse,1,47.120075,7.265004,50,DC,DC Typ2,CH*SWI*28364,
Switzerland,Bern,Biel-Brügg,Brügg,Mittelstrasse,1,47.120075,7.265004,60,DC,CHADEMO,CH*SWI*28362,
Switzerland,Ticino,Cadenazzo,Cadenazzo,Via Stazione,10,46.152132,8.937973,100,DC,CCS,CH*SWI*4752,
Switzerland,Ticino,Cadenazzo,Cadenazzo,Via Stazione,10,46.152132,8.937973,22,AC,AC Socket,CH*SWI*4754,
Switzerland,Ticino,Cadenazzo,Cadenazzo,Via Stazione,10,46.152132,8.937973,43,AC,AC Plug,CH*SWI*4755,
Switzerland,Ticino,Cadenazzo,Cadenazzo,Via Stazione,10,46.152132,8.937973,60,DC,CHADEMO,CH*SWI*4753,
Switzerland,Ticino,Coldrerio Est,Coldrerio,A2 Sud-Nord,,45.849497,8.985468,150,DC,CCS,CH*SWI*19366,
Switzerland,Ticino,Coldrerio Est,Coldrerio,A2 Sud-Nord,,45.849497,8.985468,150,DC,CCS,CH*SWI*19368,
Switzerland,Ticino,Coldrerio Est,Coldrerio,A2 Sud-Nord,,45.849497,8.985468,22,AC,AC Socket,CH*SWI*19370,
Switzerland,Ticino,Coldrerio Est,Coldrerio,A2 Sud-Nord,,45.849497,8.985468,43,AC,AC Plug,CH*SWI*19371,
Switzerland,Ticino,Coldrerio Est,Coldrerio,A2 Sud-Nord,,45.849497,8.985468,50,DC,DC Typ2,CH*SWI*19369,
Switzerland,Ticino,Coldrerio Est,Coldrerio,A2 Sud-Nord,,45.849497,8.985468,60,DC,CHADEMO,CH*SWI*19367,
Switzerland,Ticino,Coldrerio Ovest,Coldrerio,A2 Nord-Sud,,45.850172,8.983045,100,DC,CCS,CH*SWI*19189,
Switzerland,Ticino,Coldrerio Ovest,Coldrerio,A2 Nord-Sud,,45.850172,8.983045,100,DC,CCS,CH*SWI*19191,
Switzerland,Ticino,Coldrerio Ovest,Coldrerio,A2 Nord-Sud,,45.850172,8.983045,22,AC,AC Socket,CH*SWI*19193,
Switzerland,Ticino,Coldrerio Ovest,Coldrerio,A2 Nord-Sud,,45.850172,8.983045,43,AC,AC Plug,CH*SWI*19194,
Switzerland,Ticino,Coldrerio Ovest,Coldrerio,A2 Nord-Sud,,45.850172,8.983045,50,DC,DC Typ2,CH*SWI*19192,
Switzerland,Ticino,Coldrerio Ovest,Coldrerio,A2 Nord-Sud,,45.850172,8.983045,60,DC,CHADEMO,CH*SWI*19190,
Switzerland,Solothurn,Deitingen Süd,Deitingen,"Raststätte Deitingen Süd, A1 Bern-Zürich",,47.226461,7.617278,150,DC,CCS,CH*SWI*15819,
Switzerland,Solothurn,Deitingen Süd,Deitingen,"Raststätte Deitingen Süd, A1 Bern-Zürich",,47.226461,7.617278,150,DC,CCS,CH*SWI*15821,
Switzerland,Solothurn,Deitingen Süd,Deitingen,"Raststätte Deitingen Süd, A1 Bern-Zürich",,47.226461,7.617278,22,AC,AC Socket,CH*SWI*15824,
Switzerland,Solothurn,Deitingen Süd,Deitingen,"Raststätte Deitingen Süd, A1 Bern-Zürich",,47.226461,7.617278,43,AC,AC Plug,CH*SWI*15823,
Switzerland,Solothurn,Deitingen Süd,Deitingen,"Raststätte Deitingen Süd, A1 Bern-Zürich",,47.226461,7.617278,50,DC,DC Typ2,CH*SWI*15822,
Switzerland,Solothurn,Deitingen Süd,Deitingen,"Raststätte Deitingen Süd, A1 Bern-Zürich",,47.226461,7.617278,60,DC,CHADEMO,CH*SWI*15820,
Switzerland,Solothurn,Gunzgen Süd,Gunzgen,Raststätte Gunzgen Süd,,47.310304,7.847046,150,DC,CCS,CH*SWI*4868,
Switzerland,Solothurn,Gunzgen Süd,Gunzgen,Raststätte Gunzgen Süd,,47.310304,7.847046,150,DC,CCS,CH*SWI*4870,
Switzerland,Solothurn,Gunzgen Süd,Gunzgen,Raststätte Gunzgen Süd,,47.310304,7.847046,22,AC,AC Socket,CH*SWI*4872,
Switzerland,Solothurn,Gunzgen Süd,Gunzgen,Raststätte Gunzgen Süd,,47.310304,7.847046,43,AC,AC Plug,CH*SWI*4873,
Switzerland,Solothurn,Gunzgen Süd,Gunzgen,Raststätte Gunzgen Süd,,47.310304,7.847046,50,DC,DC Typ2,CH*SWI*4871,
Switzerland,Solothurn,Gunzgen Süd,Gunzgen,Raststätte Gunzgen Süd,,47.310304,7.847046,60,DC,CHADEMO,CH*SWI*4869,
Switzerland,Solothurn,Gunzgen Süd Neu,Gunzgen,Raststätte Gunzgen Süd,,47.310304,7.847046,150,DC,CCS,CH*SWI*28477,
Switzerland,Solothurn,Gunzgen Süd Neu,Gunzgen,Raststätte Gunzgen Süd,,47.310304,7.847046,150,DC,CCS,CH*SWI*28479,
Switzerland,Solothurn,Gunzgen Süd Neu,Gunzgen,Raststätte Gunzgen Süd,,47.310304,7.847046,22,AC,AC Socket,CH*SWI*28481,
Switzerland,Solothurn,Gunzgen Süd Neu,Gunzgen,Raststätte Gunzgen Süd,,47.310304,7.847046,43,AC,AC Plug,CH*SWI*28482,
Switzerland,Solothurn,Gunzgen Süd Neu,Gunzgen,Raststätte Gunzgen Süd,,47.310304,7.847046,50,DC,DC Typ2,CH*SWI*28480,
Switzerland,Solothurn,Gunzgen Süd Neu,Gunzgen,Raststätte Gunzgen Süd,,47.310304,7.847046,60,DC,CHADEMO,CH*SWI*28478,
Switzerland,Ticino,Lugano Sud,Lugano-Pazzallo,Via la Sguancia,9,45.985304,8.937183,100,DC,CCS,CH*SWI*3596,
Switzerland,Ticino,Lugano Sud,Lugano-Pazzallo,Via la Sguancia,9,45.985304,8.937183,22,AC,AC Socket,CH*SWI*3598,
Switzerland,Ticino,Lugano Sud,Lugano-Pazzallo,Via la Sguancia,9,45.985304,8.937183,43,AC,AC Plug,CH*SWI*3599,
Switzerland,Ticino,Lugano Sud,Lugano-Pazzallo,Via la Sguancia,9,45.985304,8.937183,60,DC,CHADEMO,CH*SWI*3597,
Switzerland,Bern,Lyssach,Lyssach,Kernenriedstrasse,1,47.070127,7.566534,100,DC,CCS,CH*SWI*27504,
Switzerland,Bern,Lyssach,Lyssach,Kernenriedstrasse,1,47.070127,7.566534,100,DC,CCS,CH*SWI*27506,
Switzerland,Bern,Lyssach,Lyssach,Kernenriedstrasse,1,47.070127,7.566534,22,AC,AC Socket,CH*SWI*27508,
Switzerland,Bern,Lyssach,Lyssach,Kernenriedstrasse,1,47.070127,7.566534,43,AC,AC Plug,CH*SWI*27509,
Switzerland,Bern,Lyssach,Lyssach,Kernenriedstrasse,1,47.070127,7.566534,50,DC,DC Typ2,CH*SWI*27507,
Switzerland,Bern,Lyssach,Lyssach,Kernenriedstrasse,1,47.070127,7.566534,60,DC,CHADEMO,CH*SWI*27505,
Switzerland,Ticino,Melide,Melide,Via Cantonale,13,45.954288,8.950524,150,DC,CCS,CH*SWI*10766,
Switzerland,Ticino,Melide,Melide,Via Cantonale,13,45.954288,8.950524,150,DC,CCS,CH*SWI*10769,
Switzerland,Ticino,Melide,Melide,Via Cantonale,13,45.954288,8.950524,22,AC,AC Socket,CH*SWI*10768,
Switzerland,Ticino,Melide,Melide,Via Cantonale,13,45.954288,8.950524,43,AC,AC Plug,CH*SWI*10771,
Switzerland,Ticino,Melide,Melide,Via Cantonale,13,45.954288,8.950524,60,DC,CHADEMO,CH*SWI*10767,
Switzerland,Ticino,Melide,Melide,Via Cantonale,13,45.954288,8.950524,60,DC,CHADEMO,CH*SWI*10770,
Switzerland,Ticino,Mendrisio-Foxtown,Mendrisio,Via Angelo Maspoli,22,45.875801,8.979649,100,DC,CCS,CH*SWI*27900,
Switzerland,Ticino,Mendrisio-Foxtown,Mendrisio,Via Angelo Maspoli,22,45.875801,8.979649,100,DC,CCS,CH*SWI*27902,
Switzerland,Ticino,Mendrisio-Foxtown,Mendrisio,Via Angelo Maspoli,22,45.875801,8.979649,22,AC,AC Socket,CH*SWI*27904,
Switzerland,Ticino,Mendrisio-Foxtown,Mendrisio,Via Angelo Maspoli,22,45.875801,8.979649,43,AC,AC Plug,CH*SWI*27905,
Switzerland,Ticino,Mendrisio-Foxtown,Mendrisio,Via Angelo Maspoli,22,45.875801,8.979649,50,DC,DC Typ2,CH*SWI*27903,
Switzerland,Ticino,Mendrisio-Foxtown,Mendrisio,Via Angelo Maspoli,22,45.875801,8.979649,60,DC,CHADEMO,CH*SWI*27901,
Switzerland,Neuchatel,Neuchatel,Neuchatel-Thielle,Le Verger,1,47.021221,7.028924,150,DC,CCS,CH*SWI*3705,
Switzerland,Neuchatel,Neuchatel,Neuchatel-Thielle,Le Verger,1,47.021221,7.028924,22,AC,AC Socket,CH*SWI*3707,
Switzerland,Neuchatel,Neuchatel,Neuchatel-Thielle,Le Verger,1,47.021221,7.028924,43,AC,AC Plug,CH*SWI*3708,
Switzerland,Neuchatel,Neuchatel,Neuchatel-Thielle,Le Verger,1,47.021221,7.028924,60,DC,CHADEMO,CH*SWI*3706,
Switzerland,Zürich,Oberwinterthur,Winterthur,Technoramastrasse,19,47.511273,8.762235,100,DC,CCS,CH*SWI*27856,
Switzerland,Zürich,Oberwinterthur,Winterthur,Technoramastrasse,19,47.511273,8.762235,100,DC,CCS,CH*SWI*27858,
Switzerland,Zürich,Oberwinterthur,Winterthur,Technoramastrasse,19,47.511273,8.762235,60,DC,CHADEMO,CH*SWI*27857,
Switzerland,Solothurn,Oensingen,Oensingen,Staadackerstrasse,15,47.286887,7.718049,150,DC,CCS,CH*SWI*28021,
Switzerland,Solothurn,Oensingen,Oensingen,Staadackerstrasse,15,47.286887,7.718049,150,DC,CCS,CH*SWI*28023,
Switzerland,Solothurn,Oensingen,Oensingen,Staadackerstrasse,15,47.286887,7.718049,150,DC,CCS,CH*SWI*28538,
Switzerland,Solothurn,Oensingen,Oensingen,Staadackerstrasse,15,47.286887,7.718049,150,DC,CCS,CH*SWI*28540,
Switzerland,Solothurn,Oensingen,Oensingen,Staadackerstrasse,15,47.286887,7.718049,150,DC,CCS,CH*SWI*28586,
Switzerland,Solothurn,Oensingen,Oensingen,Staadackerstrasse,15,47.286887,7.718049,150,DC,CCS,CH*SWI*28588,
Switzerland,Solothurn,Oensingen,Oensingen,Staadackerstrasse,15,47.286887,7.718049,22,AC,AC Socket,CH*SWI*28025,
Switzerland,Solothurn,Oensingen,Oensingen,Staadackerstrasse,15,47.286887,7.718049,22,AC,AC Socket,CH*SWI*28542,
Switzerland,Solothurn,Oensingen,Oensingen,Staadackerstrasse,15,47.286887,7.718049,22,AC,AC Socket,CH*SWI*28590,
Switzerland,Solothurn,Oensingen,Oensingen,Staadackerstrasse,15,47.286887,7.718049,43,AC,AC Plug,CH*SWI*28026,
Switzerland,Solothurn,Oensingen,Oensingen,Staadackerstrasse,15,47.286887,7.718049,43,AC,AC Plug,CH*SWI*28543,
Switzerland,Solothurn,Oensingen,Oensingen,Staadackerstrasse,15,47.286887,7.718049,43,AC,AC Plug,CH*SWI*28591,
Switzerland,Solothurn,Oensingen,Oensingen,Staadackerstrasse,15,47.286887,7.718049,50,DC,DC Typ2,CH*SWI*28024,
Switzerland,Solothurn,Oensingen,Oensingen,Staadackerstrasse,15,47.286887,7.718049,50,DC,DC Typ2,CH*SWI*28541,
Switzerland,Solothurn,Oensingen,Oensingen,Staadackerstrasse,15,47.286887,7.718049,50,DC,DC Typ2,CH*SWI*28589,
Switzerland,Solothurn,Oensingen,Oensingen,Staadackerstrasse,15,47.286887,7.718049,60,DC,CHADEMO,CH*SWI*28022,
Switzerland,Solothurn,Oensingen,Oensingen,Staadackerstrasse,15,47.286887,7.718049,60,DC,CHADEMO,CH*SWI*28539,
Switzerland,Solothurn,Oensingen,Oensingen,Staadackerstrasse,15,47.286887,7.718049,60,DC,CHADEMO,CH*SWI*28587,
Switzerland,Jura,Porrentruy,Porrentruy,Chemin de la Perche,,47.415837,7.081674,100,DC,CCS,CH*SWI*8462,
Switzerland,Jura,Porrentruy,Porrentruy,Chemin de la Perche,,47.415837,7.081674,100,DC,CCS,CH*SWI*8464,
Switzerland,Jura,Porrentruy,Porrentruy,Chemin de la Perche,,47.415837,7.081674,22,AC,AC Socket,CH*SWI*8466,
Switzerland,Jura,Porrentruy,Porrentruy,Chemin de la Perche,,47.415837,7.081674,43,AC,AC Plug,CH*SWI*8467,
Switzerland,Jura,Porrentruy,Porrentruy,Chemin de la Perche,,47.415837,7.081674,50,DC,DC Typ2,CH*SWI*8465,
Switzerland,Jura,Porrentruy,Porrentruy,Chemin de la Perche,,47.415837,7.081674,60,DC,CHADEMO,CH*SWI*8463,
Switzerland,Ticino,Quinto,Piotta-Quinto,Quinto Area Servizio,,46.515177,8.667065,22,AC,AC Socket,CH*SWI*3633,
Switzerland,Ticino,Quinto,Piotta-Quinto,Quinto Area Servizio,,46.515177,8.667065,43,AC,AC Plug,CH*SWI*3634,
Switzerland,Ticino,Quinto,Piotta-Quinto,Quinto Area Servizio,,46.515177,8.667065,60,DC,CHADEMO,CH*SWI*3632,
Switzerland,Ticino,Quinto,Piotta-Quinto,Quinto Area Servizio,,46.515177,8.667065,80,DC,CCS,CH*SWI*3631,
Switzerland,Fribourg,Rossens,Rossens,Route de Montena,7,46.721388,7.089351,150,DC,CCS,CH*SWI*7715,
Switzerland,Fribourg,Rossens,Rossens,Route de Montena,7,46.721388,7.089351,150,DC,CCS,CH*SWI*7717,
Switzerland,Fribourg,Rossens,Rossens,Route de Montena,7,46.721388,7.089351,22,AC,AC Socket,CH*SWI*7719,
Switzerland,Fribourg,Rossens,Rossens,Route de Montena,7,46.721388,7.089351,43,AC,AC Plug,CH*SWI*7720,
Switzerland,Fribourg,Rossens,Rossens,Route de Montena,7,46.721388,7.089351,50,DC,DC Typ2,CH*SWI*7718,
Switzerland,Fribourg,Rossens,Rossens,Route de Montena,7,46.721388,7.089351,60,DC,CHADEMO,CH*SWI*7716,
Switzerland,Schwyz,Schwyz-Mythencenter,Ibach SZ,Mytencenterstrasse,15,47.015929,8.644985,120,DC,CCS,CH*SWI*15033,
Switzerland,Schwyz,Schwyz-Mythencenter,Ibach SZ,Mytencenterstrasse,15,47.015929,8.644985,120,DC,CCS,CH*SWI*15035,
Switzerland,Schwyz,Schwyz-Mythencenter,Ibach SZ,Mytencenterstrasse,15,47.015929,8.644985,22,AC,AC Socket,CH*SWI*15037,
Switzerland,Schwyz,Schwyz-Mythencenter,Ibach SZ,Mytencenterstrasse,15,47.015929,8.644985,43,AC,AC Plug,CH*SWI*15038,
Switzerland,Schwyz,Schwyz-Mythencenter,Ibach SZ,Mytencenterstrasse,15,47.015929,8.644985,50,DC,DC Typ2,CH*SWI*15036,
Switzerland,Schwyz,Schwyz-Mythencenter,Ibach SZ,Mytencenterstrasse,15,47.015929,8.644985,60,DC,CHADEMO,CH*SWI*15034,
Switzerland,Schwyz,Schwyz-Seewen,Seewen SZ,Bahnhofstrasse,156,47.028107,8.631626,100,DC,CCS,CH*SWI*10598,
Switzerland,Schwyz,Schwyz-Seewen,Seewen SZ,Bahnhofstrasse,156,47.028107,8.631626,100,DC,CCS,CH*SWI*10789,
Switzerland,Schwyz,Schwyz-Seewen,Seewen SZ,Bahnhofstrasse,156,47.028107,8.631626,43,AC,AC Plug,CH*SWI*10600,
Switzerland,Schwyz,Schwyz-Seewen,Seewen SZ,Bahnhofstrasse,156,47.028107,8.631626,60,DC,CHADEMO,CH*SWI*10599,
Switzerland,Schwyz,Schwyz-Seewen,Seewen SZ,Bahnhofstrasse,156,47.028107,8.631626,60,DC,CHADEMO,CH*SWI*10788,
Switzerland,Graubünden,St. Moritz,St. Moritz,Via Somplaz,33,46.492017,9.833292,150,DC,CCS,CH*SWI*27660,
Switzerland,Graubünden,St. Moritz,St. Moritz,Via Somplaz,33,46.492017,9.833292,150,DC,CCS,CH*SWI*27662,
Switzerland,Graubünden,St. Moritz,St. Moritz,Via Somplaz,33,46.492017,9.833292,22,AC,AC Socket,CH*SWI*27664,
Switzerland,Graubünden,St. Moritz,St. Moritz,Via Somplaz,33,46.492017,9.833292,43,AC,AC Plug,CH*SWI*27665,
Switzerland,Graubünden,St. Moritz,St. Moritz,Via Somplaz,33,46.492017,9.833292,50,DC,DC Typ2,CH*SWI*27663,
Switzerland,Graubünden,St. Moritz,St. Moritz,Via Somplaz,33,46.492017,9.833292,60,DC,CHADEMO,CH*SWI*27661,
Switzerland,Luzern,Sursee,Schenkon,Grenzstrasse,1B,47.184505,8.111934,150,DC,CCS,CH*SWI*26419,
Switzerland,Luzern,Sursee,Schenkon,Grenzstrasse,1B,47.184505,8.111934,150,DC,CCS,CH*SWI*26421,
Switzerland,Luzern,Sursee,Schenkon,Grenzstrasse,1B,47.184505,8.111934,150,DC,CCS,CH*SWI*26485,
Switzerland,Luzern,Sursee,Schenkon,Grenzstrasse,1B,47.184505,8.111934,150,DC,CCS,CH*SWI*26487,
Switzerland,Luzern,Sursee,Schenkon,Grenzstrasse,1B,47.184505,8.111934,22,AC,AC Socket,CH*SWI*26423,
Switzerland,Luzern,Sursee,Schenkon,Grenzstrasse,1B,47.184505,8.111934,22,AC,AC Socket,CH*SWI*26489,
Switzerland,Luzern,Sursee,Schenkon,Grenzstrasse,1B,47.184505,8.111934,43,AC,AC Plug,CH*SWI*26424,
Switzerland,Luzern,Sursee,Schenkon,Grenzstrasse,1B,47.184505,8.111934,43,AC,AC Plug,CH*SWI*26490,
Switzerland,Luzern,Sursee,Schenkon,Grenzstrasse,1B,47.184505,8.111934,50,DC,DC Typ2,CH*SWI*26422,
Switzerland,Luzern,Sursee,Schenkon,Grenzstrasse,1B,47.184505,8.111934,50,DC,DC Typ2,CH*SWI*26488,
Switzerland,Luzern,Sursee,Schenkon,Grenzstrasse,1B,47.184505,8.111934,60,DC,CHADEMO,CH*SWI*26420,
Switzerland,Luzern,Sursee,Schenkon,Grenzstrasse,1B,47.184505,8.111934,60,DC,CHADEMO,CH*SWI*26486,
Switzerland,St. Gallen,Thal-Altenrhein,Thal,Burietstrasse,2090,47.479445,9.579227,150,DC,CCS,CH*SWI*15827,
Switzerland,St. Gallen,Thal-Altenrhein,Thal,Burietstrasse,2090,47.479445,9.579227,150,DC,CCS,CH*SWI*15829,
Switzerland,St. Gallen,Thal-Altenrhein,Thal,Burietstrasse,2090,47.479445,9.579227,150,DC,CCS,CH*SWI*15835,
Switzerland,St. Gallen,Thal-Altenrhein,Thal,Burietstrasse,2090,47.479445,9.579227,150,DC,CCS,CH*SWI*15837,
Switzerland,St. Gallen,Thal-Altenrhein,Thal,Burietstrasse,2090,47.479445,9.579227,22,AC,AC Socket,CH*SWI*15831,
Switzerland,St. Gallen,Thal-Altenrhein,Thal,Burietstrasse,2090,47.479445,9.579227,22,AC,AC Socket,CH*SWI*15839,
Switzerland,St. Gallen,Thal-Altenrhein,Thal,Burietstrasse,2090,47.479445,9.579227,43,AC,AC Plug,CH*SWI*15832,
Switzerland,St. Gallen,Thal-Altenrhein,Thal,Burietstrasse,2090,47.479445,9.579227,43,AC,AC Plug,CH*SWI*15840,
Switzerland,St. Gallen,Thal-Altenrhein,Thal,Burietstrasse,2090,47.479445,9.579227,50,DC,DC Typ2,CH*SWI*15830,
Switzerland,St. Gallen,Thal-Altenrhein,Thal,Burietstrasse,2090,47.479445,9.579227,50,DC,DC Typ2,CH*SWI*15838,
Switzerland,St. Gallen,Thal-Altenrhein,Thal,Burietstrasse,2090,47.479445,9.579227,60,DC,CHADEMO,CH*SWI*15828,
Switzerland,St. Gallen,Thal-Altenrhein,Thal,Burietstrasse,2090,47.479445,9.579227,60,DC,CHADEMO,CH*SWI*15836,
Switzerland,Schaffhausen,Thayngen,Thayngen,Grenzstrasse,72,47.740449,8.715253,150,DC,CCS,CH*SWI*25059,
Switzerland,Schaffhausen,Thayngen,Thayngen,Grenzstrasse,72,47.740449,8.715253,150,DC,CCS,CH*SWI*25061,
Switzerland,Schaffhausen,Thayngen,Thayngen,Grenzstrasse,72,47.740449,8.715253,22,AC,AC Socket,CH*SWI*25063,
Switzerland,Schaffhausen,Thayngen,Thayngen,Grenzstrasse,72,47.740449,8.715253,43,AC,AC Plug,CH*SWI*25064,
Switzerland,Schaffhausen,Thayngen,Thayngen,Grenzstrasse,72,47.740449,8.715253,50,DC,DC Typ2,CH*SWI*25062,
Switzerland,Schaffhausen,Thayngen,Thayngen,Grenzstrasse,72,47.740449,8.715253,60,DC,CHADEMO,CH*SWI*25060,
Switzerland,St. Gallen,Wattwil,Wattwil,Industriestrasse,,47.29543,9.093964,100,DC,CCS,CH*SWI*8492,
Switzerland,St. Gallen,Wattwil,Wattwil,Industriestrasse,,47.29543,9.093964,22,AC,AC Socket,CH*SWI*8494,
Switzerland,St. Gallen,Wattwil,Wattwil,Industriestrasse,,47.29543,9.093964,50,DC,DC Typ2,CH*SWI*8495,
Switzerland,St. Gallen,Wattwil,Wattwil,Industriestrasse,,47.29543,9.093964,60,DC,CHADEMO,CH*SWI*8493,
Switzerland,Aargau,Würenlos Limmat,Würenlos,"Raststätte Würenlos, Richtung Zürich",,47.438168,8.346589,150,DC,CCS,CH*SWI*27124,
Switzerland,Aargau,Würenlos Limmat,Würenlos,"Raststätte Würenlos, Richtung Zürich",,47.438168,8.346589,150,DC,CCS,CH*SWI*27288,
Switzerland,Aargau,Würenlos Limmat,Würenlos,"Raststätte Würenlos, Richtung Zürich",,47.438168,8.346589,22,AC,AC Socket,CH*SWI*27290,
Switzerland,Aargau,Würenlos Limmat,Würenlos,"Raststätte Würenlos, Richtung Zürich",,47.438168,8.346589,43,AC,AC Plug,CH*SWI*27126,
Switzerland,Aargau,Würenlos Limmat,Würenlos,"Raststätte Würenlos, Richtung Zürich",,47.438168,8.346589,43,AC,AC Plug,CH*SWI*27291,
Switzerland,Aargau,Würenlos Limmat,Würenlos,"Raststätte Würenlos, Richtung Zürich",,47.438168,8.346589,50,DC,DC Typ2,CH*SWI*27125,
Switzerland,Aargau,Würenlos Limmat,Würenlos,"Raststätte Würenlos, Richtung Zürich",,47.438168,8.346589,60,DC,CHADEMO,CH*SWI*27127,
Switzerland,Aargau,Würenlos Limmat,Würenlos,"Raststätte Würenlos, Richtung Zürich",,47.438168,8.346589,60,DC,CHADEMO,CH*SWI*27289,
Switzerland,Aargau,Würenlos Wald,Würenlos,"Raststätte Würenlos, Richtung Baden",,47.439184,8.348161,150,DC,CCS,CH*SWI*27373,
Switzerland,Aargau,Würenlos Wald,Würenlos,"Raststätte Würenlos, Richtung Baden",,47.439184,8.348161,150,DC,CCS,CH*SWI*27379,
Switzerland,Aargau,Würenlos Wald,Würenlos,"Raststätte Würenlos, Richtung Baden",,47.439184,8.348161,150,DC,CCS,CH*SWI*27386,
Switzerland,Aargau,Würenlos Wald,Würenlos,"Raststätte Würenlos, Richtung Baden",,47.439184,8.348161,150,DC,CCS,CH*SWI*27399,
Switzerland,Aargau,Würenlos Wald,Würenlos,"Raststätte Würenlos, Richtung Baden",,47.439184,8.348161,150,DC,CCS,CH*SWI*27412,
Switzerland,Aargau,Würenlos Wald,Würenlos,"Raststätte Würenlos, Richtung Baden",,47.439184,8.348161,150,DC,CCS,CH*SWI*27416,
Switzerland,Aargau,Würenlos Wald,Würenlos,"Raststätte Würenlos, Richtung Baden",,47.439184,8.348161,150,DC,CCS,CH*SWI*27632,
Switzerland,Aargau,Würenlos Wald,Würenlos,"Raststätte Würenlos, Richtung Baden",,47.439184,8.348161,22,AC,AC Socket,CH*SWI*27401,
Switzerland,Aargau,Würenlos Wald,Würenlos,"Raststätte Würenlos, Richtung Baden",,47.439184,8.348161,22,AC,AC Socket,CH*SWI*27414,
Switzerland,Aargau,Würenlos Wald,Würenlos,"Raststätte Würenlos, Richtung Baden",,47.439184,8.348161,22,AC,AC Socket,CH*SWI*27418,
Switzerland,Aargau,Würenlos Wald,Würenlos,"Raststätte Würenlos, Richtung Baden",,47.439184,8.348161,43,AC,AC Plug,CH*SWI*27419,
Switzerland,Aargau,Würenlos Wald,Würenlos,"Raststätte Würenlos, Richtung Baden",,47.439184,8.348161,50,DC,DC Typ2,CH*SWI*27400,
Switzerland,Aargau,Würenlos Wald,Würenlos,"Raststätte Würenlos, Richtung Baden",,47.439184,8.348161,50,DC,DC Typ2,CH*SWI*27413,
Switzerland,Aargau,Würenlos Wald,Würenlos,"Raststätte Würenlos, Richtung Baden",,47.439184,8.348161,60,DC,CHADEMO,CH*SWI*27402,
Switzerland,Aargau,Würenlos Wald,Würenlos,"Raststätte Würenlos, Richtung Baden",,47.439184,8.348161,60,DC,CHADEMO,CH*SWI*27415,
Switzerland,Aargau,Würenlos Wald,Würenlos,"Raststätte Würenlos, Richtung Baden",,47.439184,8.348161,60,DC,CHADEMO,CH*SWI*27417,
Switzerland,Zug,Zug-Rotkreuz,Rotkreuz,Blegistrasse,2,47.147604,8.433971,100,DC,CCS,CH*SWI*9269,
Switzerland,Zug,Zug-Rotkreuz,Rotkreuz,Blegistrasse,2,47.147604,8.433971,100,DC,CCS,CH*SWI*9271,
Switzerland,Zug,Zug-Rotkreuz,Rotkreuz,Blegistrasse,2,47.147604,8.433971,50,DC,DC Typ2,CH*SWI*9272,
Switzerland,Zug,Zug-Rotkreuz,Rotkreuz,Blegistrasse,2,47.147604,8.433971,60,DC,CHADEMO,CH*SWI*9270,
Switzerland,Zürich,Zürich-Adliswil,Adliswil,Zürichstrasse,114,47.327602,8.530183,150,DC,CCS,CH*SWI*24064,
Switzerland,Zürich,Zürich-Adliswil,Adliswil,Zürichstrasse,114,47.327602,8.530183,150,DC,CCS,CH*SWI*24066,
Switzerland,Zürich,Zürich-Adliswil,Adliswil,Zürichstrasse,114,47.327602,8.530183,22,AC,AC Socket,CH*SWI*24068,
Switzerland,Zürich,Zürich-Adliswil,Adliswil,Zürichstrasse,114,47.327602,8.530183,43,AC,AC Plug,CH*SWI*24069,
Switzerland,Zürich,Zürich-Adliswil,Adliswil,Zürichstrasse,114,47.327602,8.530183,50,DC,DC Typ2,CH*SWI*24067,
Switzerland,Zürich,Zürich-Adliswil,Adliswil,Zürichstrasse,114,47.327602,8.530183,60,DC,CHADEMO,CH*SWI*24065,
Switzerland,Zürich,Zürich-Altstetten,Zürich,Hohlstrasse,554,47.390564,8.491462,100,DC,CCS,CH*SWI*7905,
Switzerland,Zürich,Zürich-Altstetten,Zürich,Hohlstrasse,554,47.390564,8.491462,100,DC,CCS,CH*SWI*7907,
Switzerland,Zürich,Zürich-Altstetten,Zürich,Hohlstrasse,554,47.390564,8.491462,22,AC,AC Socket,CH*SWI*7909,
Switzerland,Zürich,Zürich-Altstetten,Zürich,Hohlstrasse,554,47.390564,8.491462,43,AC,AC Plug,CH*SWI*7928,
Switzerland,Zürich,Zürich-Altstetten,Zürich,Hohlstrasse,554,47.390564,8.491462,50,DC,DC Typ2,CH*SWI*7908,
Switzerland,Zürich,Zürich-Altstetten,Zürich,Hohlstrasse,554,47.390564,8.491462,60,DC,CHADEMO,CH*SWI*7906,
Switzerland,Zürich,Zürich-Dietikon,Dietikon,Silbernstrasse,12,47.417287,8.394857,100,DC,CCS,CH*SWI*15541,
Switzerland,Zürich,Zürich-Dietikon,Dietikon,Silbernstrasse,12,47.417287,8.394857,100,DC,CCS,CH*SWI*15543,
Switzerland,Zürich,Zürich-Dietikon,Dietikon,Silbernstrasse,12,47.417287,8.394857,22,AC,AC Socket,CH*SWI*15545,
Switzerland,Zürich,Zürich-Dietikon,Dietikon,Silbernstrasse,12,47.417287,8.394857,43,AC,AC Plug,CH*SWI*15546,
Switzerland,Zürich,Zürich-Dietikon,Dietikon,Silbernstrasse,12,47.417287,8.394857,50,DC,DC Typ2,CH*SWI*15544,
Switzerland,Zürich,Zürich-Dietikon,Dietikon,Silbernstrasse,12,47.417287,8.394857,60,DC,CHADEMO,CH*SWI*15542,
Switzerland,Zürich,Zürich-Wettswil,Wettswil am Albis,Moosstrasse,7,47.334468,8.460175,150,DC,CCS,CH*SWI*6070,
Switzerland,Zürich,Zürich-Wettswil,Wettswil am Albis,Moosstrasse,7,47.334468,8.460175,22,AC,AC Socket,CH*SWI*6072,
Switzerland,Zürich,Zürich-Wettswil,Wettswil am Albis,Moosstrasse,7,47.334468,8.460175,50,DC,DC Typ2,CH*SWI*6077,
Switzerland,Zürich,Zürich-Wettswil,Wettswil am Albis,Moosstrasse,7,47.334468,8.460175,60,DC,CHADEMO,CH*SWI*6078,
